      ___       ___           ___           ___           ___           ___              
     /\__\     /\  \         /\__\         /\  \         /\  \         /\__\             
    /:/  /    /::\  \       /::|  |       /::\  \       /::\  \       /:/  /             
   /:/  /    /:/\:\  \     /:|:|  |      /:/\:\  \     /:/\:\  \     /:/__/              
  /:/  /    /:/  \:\  \   /:/|:|__|__   /::\~\:\__\   /:/  \:\  \   /::\__\____          
 /:/__/    /:/__/ \:\__\ /:/ |::::\__\ /:/\:\ \:|__| /:/__/ \:\__\ /:/\:::::\__\         
 \:\  \    \:\  \ /:/  / \/__/~~/:/  / \:\~\:\/:/  / \:\  \ /:/  / \/_|:|~~|~            
  \:\  \    \:\  /:/  /        /:/  /   \:\ \::/  /   \:\  /:/  /     |:|  |             
   \:\  \    \:\/:/  /        /:/  /     \:\/:/  /     \:\/:/  /      |:|  |             
    \:\__\    \::/  /        /:/  /       \::/__/       \::/  /       |:|  |             
     \/__/     \/__/         \/__/         ~~            \/__/         \|__|        
                           
${appli.name} :: ${appli.libelle-court} :: ${appli.libelle-long} 
Version : ${appli.build-version}
Running with Spring Boot version : ${spring-boot.version}
Build with Lombok version : ${appli.lombok-version}
                                                                      